<?xml version="1.0" encoding="UTF-8"?>
<svg width="60px" height="60px" viewBox="0 0 60 60" version="1.1" xmlns="http://www.w3.org/2000/svg" xmlns:xlink="http://www.w3.org/1999/xlink">
    <!-- Generator: Sketch 44.1 (41455) - http://www.bohemiancoding.com/sketch -->
    <title>labyrinth</title>
    <desc>Created with Sketch.</desc>
    <defs></defs>
    <g id="myCryptoWallet" stroke="none" stroke-width="1" fill="none" fill-rule="evenodd">
        <g id="Desktop/Homepage" transform="translate(-210.000000, -785.000000)" fill-rule="nonzero">
            <g id="labyrinth" transform="translate(210.000000, 785.062535)">
                <path d="M47.5912281,8.82491228 L42.5484211,8.82491228 C42.0261988,8.82491228 41.602924,9.24830409 41.602924,9.77040936 C41.602924,10.2926316 42.0263158,10.7159064 42.5484211,10.7159064 L47.5912281,10.7159064 C48.4602339,10.7159064 49.1671345,11.422807 49.1671345,12.2918129 L49.1671345,47.591345 C49.1671345,48.4603509 48.4602339,49.1672515 47.5912281,49.1672515 L42.5484211,49.1672515 C42.0261988,49.1672515 41.602924,49.5906433 41.602924,50.1127485 C41.602924,50.6349708 42.0263158,51.0582456 42.5484211,51.0582456 L47.5912281,51.0582456 C49.502924,51.0582456 51.0581287,49.5030409 51.0581287,47.591345 L51.0581287,35.9298246 L55.6176608,35.9298246 C56.139883,35.9298246 56.5631579,35.5064327 56.5631579,34.9843275 C56.5631579,34.4622222 56.1397661,34.0388304 55.6176608,34.0388304 L51.0581287,34.0388304 L51.0581287,12.2918129 C51.0581287,10.380117 49.502924,8.82491228 47.5912281,8.82491228 Z" id="Shape" fill="#4084D3"></path>
                <path d="M28.6808187,17.0194152 C28.1585965,17.0194152 27.7353216,17.442807 27.7353216,17.9649123 C27.7353216,18.4871345 28.1587135,18.9104094 28.6808187,18.9104094 L40.6574269,18.9104094 C40.8311111,18.9104094 40.9726316,19.0518129 40.9726316,19.225614 L40.9726316,40.6574269 C40.9726316,40.8311111 40.8312281,40.9726316 40.6574269,40.9726316 L19.225614,40.9726316 C19.0519298,40.9726316 18.9104094,40.8312281 18.9104094,40.6574269 L18.9104094,19.225614 C18.9104094,19.0519298 19.0518129,18.9104094 19.225614,18.9104094 L22.3773099,18.9104094 C22.8995322,18.9104094 23.322807,18.4870175 23.322807,17.9649123 C23.322807,17.4426901 22.8994152,17.0194152 22.3773099,17.0194152 L19.225614,17.0194152 C18.0091228,17.0194152 17.0194152,18.0092398 17.0194152,19.225614 L17.0194152,40.6574269 C17.0194152,41.8739181 18.0092398,42.8636257 19.225614,42.8636257 L40.6574269,42.8636257 C41.8739181,42.8636257 42.8636257,41.8738012 42.8636257,40.6574269 L42.8636257,23.322924 L46.8348538,23.322924 C47.357076,23.322924 47.7803509,22.8995322 47.7803509,22.3774269 C47.7803509,21.8552047 47.3569591,21.4319298 46.8348538,21.4319298 L42.8636257,21.4319298 L42.8636257,19.225731 C42.8636257,18.0092398 41.8738012,17.0195322 40.6574269,17.0195322 L28.6808187,17.0195322 L28.6808187,17.0194152 Z" id="Shape" fill="#37517E"></path>
                <path d="M58.9375439,49.1671345 C58.4153216,49.1671345 57.9920468,49.5905263 57.9920468,50.1126316 L57.9920468,53.8947368 C57.9920468,56.1539181 56.1539181,57.9920468 53.8947368,57.9920468 L5.98830409,57.9920468 C3.72912281,57.9920468 1.89099415,56.1539181 1.89099415,53.8947368 L1.89099415,16.0739181 C1.89099415,15.5516959 1.46760234,15.1284211 0.945497076,15.1284211 C0.423391813,15.1284211 0,15.5516959 0,16.0739181 L0,53.8947368 C0,57.1966082 2.68643275,59.8830409 5.98830409,59.8830409 L53.8947368,59.8830409 C57.1966082,59.8830409 59.8830409,57.1966082 59.8830409,53.8947368 L59.8830409,50.1126316 C59.8830409,49.5905263 59.4596491,49.1671345 58.9375439,49.1671345 Z" id="Shape" fill="#4084D3"></path>
                <path d="M17.3345029,3.15169591 C16.8122807,3.15169591 16.3890058,3.57508772 16.3890058,4.09719298 L16.3890058,8.82479532 L12.2916959,8.82479532 C10.38,8.82479532 8.82479532,10.38 8.82479532,12.2916959 L8.82479532,36.2449123 C8.82479532,36.7671345 9.24818713,37.1904094 9.7702924,37.1904094 C10.2925146,37.1904094 10.7157895,36.7670175 10.7157895,36.2449123 L10.7157895,12.2916959 C10.7157895,11.4226901 11.4226901,10.7157895 12.2916959,10.7157895 L36.2449123,10.7157895 C36.7671345,10.7157895 37.1904094,10.2923977 37.1904094,9.7702924 C37.1904094,9.24807018 36.7670175,8.82479532 36.2449123,8.82479532 L18.28,8.82479532 L18.28,4.09730994 C18.280117,3.57508772 17.8567251,3.15169591 17.3345029,3.15169591 Z" id="Shape" fill="#4084D3"></path>
                <path d="M32.8319298,27.1049123 C32.9616374,27.4721637 33.3120468,27.7352047 33.7236257,27.7352047 C34.245848,27.7352047 34.6691228,27.3118129 34.6691228,26.7897076 C34.6691228,25.9207018 33.9622222,25.2138012 33.0932164,25.2138012 L26.7897076,25.2138012 C25.9207018,25.2138012 25.2138012,25.9207018 25.2138012,26.7897076 L25.2138012,33.0932164 C25.2138012,33.9622222 25.9207018,34.6691228 26.7897076,34.6691228 L33.0932164,34.6691228 C33.9622222,34.6691228 34.6691228,33.9622222 34.6691228,33.0932164 L34.6691228,31.2022222 C34.6691228,30.68 34.245731,30.2567251 33.7236257,30.2567251 C33.2014035,30.2567251 32.7781287,30.680117 32.7781287,31.2022222 L32.7781287,32.7781287 L27.1050292,32.7781287 L27.1050292,27.1050292 L32.8319298,27.1050292 L32.8319298,27.1049123 Z" id="Shape" fill="#4F98DB"></path>
                <path d="M53.8947368,0 L5.98830409,0 C2.68643275,0 0,2.68643275 0,5.98830409 L0,12.2918129 C0,12.8140351 0.423391813,13.2373099 0.945497076,13.2373099 C1.46760234,13.2373099 1.89099415,12.8139181 1.89099415,12.2918129 L1.89099415,5.98830409 C1.89099415,3.72912281 3.72912281,1.89099415 5.98830409,1.89099415 L53.8947368,1.89099415 C56.1539181,1.89099415 57.9920468,3.72912281 57.9920468,5.98830409 L57.9920468,46.3305263 C57.9920468,46.8527485 58.4154386,47.2760234 58.9375439,47.2760234 C59.4597661,47.2760234 59.8830409,46.8526316 59.8830409,46.3305263 L59.8830409,5.98830409 C59.8830409,2.68643275 57.1966082,0 53.8947368,0 Z" id="Shape" fill="#37517E"></path>
                <path d="M3.27777778,42.5484211 C3.27777778,43.0706433 3.70116959,43.4939181 4.22327485,43.4939181 L8.82479532,43.4939181 L8.82479532,47.5912281 C8.82479532,49.502924 10.38,51.0581287 12.2916959,51.0581287 L38.7663158,51.0581287 C39.288538,51.0581287 39.7118129,50.6347368 39.7118129,50.1126316 C39.7118129,49.5904094 39.2884211,49.1671345 38.7663158,49.1671345 L12.2918129,49.1671345 C11.422807,49.1671345 10.7159064,48.4602339 10.7159064,47.5912281 L10.7159064,43.1788304 C10.7159064,42.3098246 10.0093567,41.602924 9.14116959,41.602924 L4.22327485,41.602924 C3.70116959,41.602924 3.27777778,42.0263158 3.27777778,42.5484211 Z" id="Shape" fill="#37517E"></path>
            </g>
        </g>
    </g>
</svg>